\relax 
\citation{Beck}
\@writefile{toc}{\contentsline {section}{\numberline {1}Vector spaces}{2}{}\protected@file@percent }
\@writefile{toc}{\contentsline {subsection}{\numberline {1.1}Definition}{2}{}\protected@file@percent }
\@writefile{toc}{\contentsline {subsection}{\numberline {1.2}Dimension}{2}{}\protected@file@percent }
\@writefile{toc}{\contentsline {subsection}{\numberline {1.3}Norms}{3}{}\protected@file@percent }
\@writefile{toc}{\contentsline {subsection}{\numberline {1.4}Inner products}{3}{}\protected@file@percent }
\@writefile{toc}{\contentsline {subsection}{\numberline {1.5}Affine sets and convec sets}{3}{}\protected@file@percent }
\@writefile{toc}{\contentsline {subsection}{\numberline {1.6}Euclidean spaces}{4}{}\protected@file@percent }
\@writefile{toc}{\contentsline {subsection}{\numberline {1.7}Cartedian product of vector spaces}{6}{}\protected@file@percent }
\@writefile{toc}{\contentsline {subsection}{\numberline {1.8}Linear transformations}{6}{}\protected@file@percent }
\@writefile{toc}{\contentsline {subsection}{\numberline {1.9}The dual space}{7}{}\protected@file@percent }
\@writefile{toc}{\contentsline {subsection}{\numberline {1.10}Adjoint transformations}{8}{}\protected@file@percent }
\@writefile{toc}{\contentsline {subsection}{\numberline {1.11}Norms of linear transformations}{8}{}\protected@file@percent }
\bibstyle{unsrt}
\bibdata{ref}
\bibcite{Beck}{1}
\gdef \@abspage@last{9}
